…
## Separating and uniting

In Lab 4 we learned about `dplyr` functions using data on the 45 U.S. presidents.

For this example, we'll look at a messier version of the same dataset. The file `presidents_messy.txt` is on [Canvas](https://umich.instructure.com/courses/181629/files){:target="_blank"}.

``` r
pres <- read_csv('presidents_messy.txt')
print(pres)
```

    ## # A tibble: 45 x 15
    ##       ID `Last Name` `First Name` `Middle Name` `Order of Presidency`
    ##    <int>       <chr>        <chr>         <chr>                 <int>
    ##  1     1  Washington       George          <NA>                     1
    ##  2     2       Adams         John          <NA>                     2
    ##  3     3   Jefferson       Thomas          <NA>                     3
    ##  4     4     Madison        James          <NA>                     4
    ##  5     5      Monroe        James          <NA>                     5
    ##  6     6       Adams         John        Quincy                     6
    ##  7     7     Jackson       Andrew          <NA>                     7
    ##  8     8   Van Buren       Martin          <NA>                     8
    ##  9     9    Harrison      William         Henry                     9
    ## 10    10       Tyler         John          <NA>                    10
    ## # ... with 35 more rows, and 10 more variables: `Date of Birth` <chr>,
    ## #   `Date of Death` <chr>, `Town or County of Birth` <chr>, `State of
    ## #   Birth` <chr>, `Home State` <chr>, `Party Affiliation` <chr>, `Date
    ## #   Took Office` <chr>, `Date Left Office` <chr>, `Assassination
    ## #   Attempt` <lgl>, Assassinated <lgl>
…
`unite` combines multiple columns into a single column. Suppose we want a single column containing the president's full name:

``` r
pres %>%
  unite(name,         # first argument is the name of the new column to create
        `First Name`, # subsequent arguments specify the columns to unite
        `Middle Name`,
        `Last Name`,
        sep=' ' # the character that will separate the values of the united columns
        ) %>%
  select(name)
```

    ## # A tibble: 45 x 1
    ##                      name
    ##  *                  <chr>
    ##  1   George NA Washington
    ##  2          John NA Adams
    ##  3    Thomas NA Jefferson
    ##  4       James NA Madison
    ##  5        James NA Monroe
    ##  6      John Quincy Adams
    ##  7      Andrew NA Jackson
    ##  8    Martin NA Van Buren
    ##  9 William Henry Harrison
    ## 10          John NA Tyler
    ## # ... with 35 more rows
…
``` r
pres <-
  pres %>%
  mutate(`Middle Name` = ifelse(is.na(`Middle Name`), '', `Middle Name`)) %>%
  unite(name, `First Name`,  `Middle Name`,    `Last Name`, sep=' ') 
```

By default, the united columns and dropped from the data frame.

``` r
print(pres)
```

    ## # A tibble: 45 x 13
    ##       ID                   name `Order of Presidency` `Date of Birth`
    ##  * <int>                  <chr>                 <int>           <chr>
    ##  1     1     George  Washington                     1      02/22/1732
    ##  2     2            John  Adams                     2      10/30/1735
    ##  3     3      Thomas  Jefferson                     3      04/13/1743
    ##  4     4         James  Madison                     4      03/16/1751
    ##  5     5          James  Monroe                     5      04/28/1758
    ##  6     6      John Quincy Adams                     6      07/11/1767
    ##  7     7        Andrew  Jackson                     7      03/15/1767
    ##  8     8      Martin  Van Buren                     8      12/05/1782
    ##  9     9 William Henry Harrison                     9      02/09/1773
    ## 10    10            John  Tyler                    10      03/29/1790
    ## # ... with 35 more rows, and 9 more variables: `Date of Death` <chr>,
    ## #   `Town or County of Birth` <chr>, `State of Birth` <chr>, `Home
    ## #   State` <chr>, `Party Affiliation` <chr>, `Date Took Office` <chr>,
    ## #   `Date Left Office` <chr>, `Assassination Attempt` <lgl>,
    ## #   Assassinated <lgl>
…
```r
pres <-
  pres %>%
  separate(`Date of Birth`,        # the column to separate
           c('birth_month', 'birth_day', 'birth_year'),  # the names of the new columns
           sep = '/',        # the character defining the separation
           remove = FALSE,   # should the original column be removed from the result?
           convert = TRUE)   # convert the new columns to numeric variables if possible

## Check the results
pres %>% select(contains("birth"))
```

    ## # A tibble: 45 x 6
    ##    `Date of Birth` birth_month birth_day birth_year
    ##  *           <chr>       <int>     <int>      <int>
    ##  1      02/22/1732           2        22       1732
    ##  2      10/30/1735          10        30       1735
    ##  3      04/13/1743           4        13       1743
    ##  4      03/16/1751           3        16       1751
    ##  5      04/28/1758           4        28       1758
    ##  6      07/11/1767           7        11       1767
    ##  7      03/15/1767           3        15       1767
    ##  8      12/05/1782          12         5       1782
    ##  9      02/09/1773           2         9       1773
    ## 10      03/29/1790           3        29       1790
    ## # ... with 35 more rows, and 2 more variables: `Town or County of
    ## #   Birth` <chr>, `State of Birth` <chr>
…
