…
-   The columns that contain values, not variables (the `respop####` columns).
-   The name of the column whose values are the column names from the previous step (`year` in this case).
-   The name of the variable whose values are spread across the columns (`count`, for population counts)

Putting this together,

``` r
(cpop <- 
  cpop %>%
  gather(contains('respop'),
         key = 'year', value = 'count'))
```

    ## # A tibble: 581 x 3
    ##     County        year  count
    ##      <chr>       <chr>  <int>
    ##  1  Alcona respop72010  10890
    ##  2   Alger respop72010   9565
    ##  3 Allegan respop72010 111502
    ##  4  Alpena respop72010  29539
    ##  5  Antrim respop72010  23499
    ##  6  Arenac respop72010  15853
    ##  7  Baraga respop72010   8842
    ##  8   Barry respop72010  59081
    ##  9     Bay respop72010 107688
    ## 10  Benzie respop72010  17512
    ## # ... with 571 more rows
…
The `spread` function does the opposite of `gather`:

``` r
spread(cpop, key='year', value = 'count')
```

    ## # A tibble: 83 x 8
    ##     County `2010` `2011` `2012` `2013` `2014` `2015` `2016`
    ##  *   <chr>  <int>  <int>  <int>  <int>  <int>  <int>  <int>
    ##  1  Alcona  10890  10776  10609  10573  10439  10333  10352
    ##  2   Alger   9565   9550   9495   9495   9424   9347   9219
    ##  3 Allegan 111502 111550 111929 112415 113778 114661 115548
    ##  4  Alpena  29539  29339  29208  29012  28932  28791  28704
    ##  5  Antrim  23499  23385  23336  23219  23244  23133  23144
    ##  6  Arenac  15853  15617  15495  15412  15324  15280  15122
    ##  7  Baraga   8842   8818   8708   8682   8623   8546   8503
    ##  8   Barry  59081  58970  59068  59134  59283  59393  59702
    ##  9     Bay 107688 107498 107091 106910 106232 105557 104747
    ## 10  Benzie  17512  17431  17389  17400  17511  17436  17572
    ## # ... with 73 more rows
…
